<!-- Generator: Adobe Illustrator 23.0.1, SVG Export Plug-In  -->
<svg version="1.1" xmlns="http://www.w3.org/2000/svg" xmlns:xlink="http://www.w3.org/1999/xlink" x="0px" y="0px" width="145px"
	 height="120px" viewBox="0 0 145 120" style="enable-background:new 0 0 145 120;" xml:space="preserve">
<style type="text/css">
	.st0{fill:url(#SVGID_1_);}
	.st1{fill:url(#SVGID_2_);}
</style>
<defs>
</defs>
<g>
	<g>
		<linearGradient id="SVGID_1_" gradientUnits="userSpaceOnUse" x1="0" y1="60" x2="145" y2="60">
			<stop  offset="5.000000e-02" style="stop-color:#DFC068"/>
			<stop  offset="6.252489e-02" style="stop-color:#E5CB7C"/>
			<stop  offset="8.581614e-02" style="stop-color:#EEDC9A"/>
			<stop  offset="0.1103" style="stop-color:#F6EAB2"/>
			<stop  offset="0.1363" style="stop-color:#FBF4C3"/>
			<stop  offset="0.1647" style="stop-color:#FEF9CD"/>
			<stop  offset="0.2" style="stop-color:#FFFBD0"/>
			<stop  offset="0.35" style="stop-color:#DEB74F"/>
			<stop  offset="0.3796" style="stop-color:#E2BC55"/>
			<stop  offset="0.4182" style="stop-color:#EFCB65"/>
			<stop  offset="0.45" style="stop-color:#FDDC78"/>
			<stop  offset="0.4901" style="stop-color:#E3BC59"/>
			<stop  offset="0.5329" style="stop-color:#CDA13F"/>
			<stop  offset="0.5709" style="stop-color:#C0912F"/>
			<stop  offset="0.6" style="stop-color:#BB8B29"/>
			<stop  offset="0.75" style="stop-color:#FFF4CC"/>
			<stop  offset="0.7736" style="stop-color:#FCEFC3"/>
			<stop  offset="0.8121" style="stop-color:#F4E2AB"/>
			<stop  offset="0.8608" style="stop-color:#E6CD83"/>
			<stop  offset="0.9176" style="stop-color:#D3B04C"/>
			<stop  offset="0.98" style="stop-color:#BC8B07"/>
		</linearGradient>
		<path class="st0" d="M144.4,77.3l-11-10.9c-1.4-1.4-3.4-2.2-5.4-2.2c-1.5,0-2.9,0.4-4.2,1.2l-9.4-9.3l3.2-3.2
			c3.5-3.4,3.5-9,0-12.4c-1.5-1.5-3.4-2.4-5.5-2.5c0.9-3,0.2-6.4-2.2-8.7c-1.4-1.4-3.2-2.2-5.1-2.5c0.4-1,0.6-2.1,0.6-3.2
			c0-2.3-0.9-4.6-2.6-6.2c-1.5-1.5-3.5-2.4-5.6-2.5c0.9-3,0.1-6.3-2.2-8.7c-1.7-1.7-3.9-2.6-6.3-2.6c-1.7,0-3.4,0.5-4.8,1.4
			l-0.6-1.1c-1.4-2.6-4.2-4-7.1-3.6L62.9,2.1C61.3,0.8,59.3,0,57.2,0c-2.3,0-4.5,0.9-6.1,2.5C49.6,4,48.7,6,48.6,8
			c-0.6-0.1-1.2-0.2-1.8-0.2c-2.3,0-4.5,0.9-6.1,2.5v0c-2.3,2.3-3,5.7-2.1,8.6c-1.8,0.2-3.6,1-5,2.4l0,0c-2.2,2.2-3,5.3-2.3,8.1
			c-2,0.2-3.9,1-5.4,2.5l0,0c-3.3,3.3-3.3,8.7,0,12l3.3,3.3c0.4,0.4,0.8,0.7,1.2,1c0.4,2.4,1.3,4.7,2.8,6.7l-12.1,12
			c-3-1.9-7-1.6-9.6,1l-11,10.9c-1.3,1.3-0.4,3.6,1.5,3.6c0.5,0,1.1-0.2,1.5-0.6l11-10.9c1.3-1.3,3.5-1.3,4.8,0l6.8,6.8
			c0.8,0.8,2.2,0.8,3,0c0.8-0.8,0.8-2.2,0-3l-4.9-4.9l13.4-13.3c0.8-0.8,0.8-2.2,0-3c-1.1-1.1-1.9-2.4-2.5-3.8c0,0,0.1,0,0.1,0
			c2.2,0,4.4-0.8,6.1-2.5c1.4-1.4,2.3-3.3,2.5-5.3c0.7,0.2,1.4,0.3,2.2,0.3c2.3,0,4.5-0.9,6.1-2.5c1.4-1.4,2.2-3.1,2.4-4.8
			c0.9,0.3,1.9,0.5,2.9,0.5c2.3,0,4.5-0.9,6.1-2.5c3-2.9,3.3-7.5,1-10.8c1.5-0.4,2.9-1.1,4.1-2.3c0,0,0.1-0.1,0.1-0.1
			c0.4,0,0.8-0.1,1.2-0.1l4.9-0.9c0.6,0,1.2-0.2,1.6-0.6l0,0c0,0,0,0,0,0l2.1-2l6.3-6.2c0,0,0,0,0.1-0.1l0.6-0.6
			c0.9-0.9,2-1.3,3.3-1.3c1.2,0,2.4,0.5,3.3,1.3c1.8,1.8,1.8,4.7,0,6.5l-1.8,1.7c-0.8,0.8-0.8,2.2,0,3c0.8,0.8,2.2,0.8,3,0l0,0
			c1.8-1.8,4.7-1.8,6.5,0c0.9,0.9,1.4,2,1.4,3.2c0,1.2-0.5,2.4-1.4,3.2l-2.5,2.4c0,0,0,0,0,0c-0.8,0.8-0.8,2.2,0,3
			c0.8,0.8,2.2,0.8,3,0l0,0c0.9-0.9,2-1.3,3.3-1.3c1.2,0,2.4,0.5,3.3,1.3c1.8,1.8,1.8,4.7,0,6.5l-1.8,1.8c-0.8,0.8-0.8,2.2,0,3
			c0.8,0.8,2.2,0.8,3,0c0.9-0.9,2-1.3,3.3-1.3c1.2,0,2.4,0.5,3.3,1.3c1.8,1.8,1.8,4.7,0,6.5l-4.7,4.7c0,0,0,0,0,0c0,0,0,0,0,0
			l-27.3,27c-1.9,1.8-4.3,2.8-6.9,2.8c-2.6,0-5.1-1-6.9-2.8l-0.4-0.4c-0.8-0.8-2.2-0.8-3,0L50.7,95.9L35.3,80.7
			c-0.8-0.8-2.2-0.8-3,0c-0.8,0.8-0.8,2.2,0,3l17.3,17.1c1.3,1.3,1.3,3.5,0,4.8l-11,10.9c-0.8,0.8-0.8,2.2,0,3
			c0.4,0.4,1,0.6,1.5,0.6c0.5,0,1.1-0.2,1.5-0.6l11-10.9c2.6-2.6,2.9-6.6,1-9.5L67,85.8c2.5,2,5.5,3,8.8,3c3.8,0,7.3-1.4,9.9-4.1
			l25.8-25.5l9.2,9.2L94.3,94.5L88.8,89c-0.8-0.8-2.2-0.8-3,0c-0.8,0.8-0.8,2.2,0,3l5.6,5.6c-0.8,1.2-1.2,2.6-1.2,4.1
			c0,2,0.8,3.9,2.2,5.4l11,10.9c0.8,0.8,2.2,0.8,3,0c0.8-0.8,0.8-2.2,0-3l-11-10.9c-0.6-0.6-1-1.5-1-2.4c0-0.9,0.4-1.8,1-2.4
			l30.1-29.9c0.6-0.6,1.5-1,2.4-1c0.9,0,1.8,0.4,2.4,1l11,10.9c0.8,0.8,2.2,0.8,3,0C145.2,79.5,145.2,78.2,144.4,77.3z M54.1,5.5
			c0.8-0.8,1.8-1.2,2.8-1.2c0,0-0.1,0.1-0.1,0.1c-0.7,1-1,2.2-0.8,3.4l0.4,2.3c0.5,3.1,2.2,5.8,4.7,7.6c0.2,0.1,0.4,0.3,0.6,0.4
			c-0.8-0.2-1.6-0.6-2.2-1.2l-3-2.9l-2.4-2.4C52.4,9.9,52.4,7.1,54.1,5.5z M38.4,44.3c-1.7,1.7-4.4,1.7-6.1,0L28.9,41
			c-1.7-1.7-1.7-4.4,0-6.1l0,0c1.7-1.7,4.4-1.7,6.1,0l2.1,2.1l1.2,1.2c0.8,0.8,1.3,1.9,1.3,3S39.2,43.5,38.4,44.3z M49.2,36.8
			c-0.8,0.8-1.9,1.3-3.1,1.3c-1.2,0-2.2-0.4-3.1-1.3L40.2,34l-2.1-2.1c0,0,0,0,0,0l-1.5-1.5c-1.7-1.7-1.7-4.4,0-6.1l0,0
			c1.7-1.7,4.4-1.7,6.1,0l6.4,6.4C50.9,32.4,50.9,35.1,49.2,36.8z M60.5,29.9c-0.8,0.8-1.9,1.3-3.1,1.3c-1.2,0-2.2-0.4-3.1-1.3
			l-2.2-2.2c0,0,0,0,0,0l-6.4-6.4c0,0,0,0,0,0l-2-2c-1.7-1.7-1.7-4.4,0-6.1v0c1.7-1.7,4.4-1.7,6.1,0l1.2,1.2c0,0,0,0,0,0l2.3,2.3
			l7.1,7C62.2,25.5,62.2,28.3,60.5,29.9z M79.2,9.4L74,14.6l-4.8,0.8c-2,0.3-4-0.1-5.6-1.3c-1.6-1.2-2.7-2.9-3-4.8l-0.4-2.3
			c0-0.1,0-0.2,0.1-0.2c0,0,0.1-0.1,0.2-0.1l16.4-2.3c0.1,0,0.2,0,0.4,0c1,0,1.9,0.5,2.4,1.4l1.1,2.1L79.2,9.4z"/>
	</g>
</g>
</svg>
