<!-- Generator: Adobe Illustrator 23.0.1, SVG Export Plug-In  -->
<svg version="1.1" xmlns="http://www.w3.org/2000/svg" xmlns:xlink="http://www.w3.org/1999/xlink" x="0px" y="0px" width="120px"
	 height="120px" viewBox="0 0 120 120" style="enable-background:new 0 0 120 120;" xml:space="preserve">
<style type="text/css">
	.st0{fill:url(#SVGID_1_);}
	.st1{fill:url(#SVGID_2_);}
</style>
<defs>
</defs>
<linearGradient id="SVGID_1_" gradientUnits="userSpaceOnUse" x1="0" y1="60.0005" x2="120" y2="60.0005">
	<stop  offset="5.000000e-02" style="stop-color:#DFC068"/>
	<stop  offset="6.252489e-02" style="stop-color:#E5CB7C"/>
	<stop  offset="8.581614e-02" style="stop-color:#EEDC9A"/>
	<stop  offset="0.1103" style="stop-color:#F6EAB2"/>
	<stop  offset="0.1363" style="stop-color:#FBF4C3"/>
	<stop  offset="0.1647" style="stop-color:#FEF9CD"/>
	<stop  offset="0.2" style="stop-color:#FFFBD0"/>
	<stop  offset="0.35" style="stop-color:#DEB74F"/>
	<stop  offset="0.3796" style="stop-color:#E2BC55"/>
	<stop  offset="0.4182" style="stop-color:#EFCB65"/>
	<stop  offset="0.45" style="stop-color:#FDDC78"/>
	<stop  offset="0.4901" style="stop-color:#E3BC59"/>
	<stop  offset="0.5329" style="stop-color:#CDA13F"/>
	<stop  offset="0.5709" style="stop-color:#C0912F"/>
	<stop  offset="0.6" style="stop-color:#BB8B29"/>
	<stop  offset="0.75" style="stop-color:#FFF4CC"/>
	<stop  offset="0.7736" style="stop-color:#FCEFC3"/>
	<stop  offset="0.8121" style="stop-color:#F4E2AB"/>
	<stop  offset="0.8608" style="stop-color:#E6CD83"/>
	<stop  offset="0.9176" style="stop-color:#D3B04C"/>
	<stop  offset="0.98" style="stop-color:#BC8B07"/>
</linearGradient>
<path class="st0" d="M82.1,72.6v2.5c0,2-0.8,3.8-2.2,5.1c1.3,1.3,2.2,3.1,2.2,5.1v2.5c0,2-0.8,3.8-2.2,5.1c1.3,1.3,2.2,3.1,2.2,5.1
	v2.5c0,2-0.8,3.8-2.2,5.1c1.3,1.3,2.2,3.1,2.2,5.1v2.5c0,3.8-3.1,6.9-6.9,6.9H40.8c-2.8,0-5.4-1.1-7.4-3.1c-1.3-1.3-3-2-4.8-2H24
	v0.6c0,2.4-2,4.4-4.4,4.4H4.4C2,120,0,118,0,115.6V72.6c0-2.4,2-4.4,4.4-4.4h15.2c2.4,0,4.4,2,4.4,4.4v0.6h4.6c1.4,0,2.6-0.9,3-2.2
	l0.7-2.1c2.1-6.2,3.1-12.6,3.1-19.1c0-3.8,3.1-6.9,6.9-6.9c2.5,0,4.9,1,6.7,2.8c1.8,1.8,2.8,4.2,2.8,6.7v20.2c0,1-0.8,1.9-1.9,1.9
	c-1,0-1.9-0.8-1.9-1.9V52.4c0-1.5-0.6-2.9-1.7-4c-1.1-1.1-2.5-1.7-4-1.7c-1.7,0-3.2,1.4-3.2,3.2c0,6.9-1.1,13.7-3.3,20.3l-0.7,2.1
	c-0.9,2.8-3.6,4.8-6.6,4.8H24v5.7c0,1-0.8,1.9-1.9,1.9c-1,0-1.9-0.8-1.9-1.9V72.6c0-0.3-0.3-0.6-0.6-0.6H4.4c-0.3,0-0.6,0.3-0.6,0.6
	v42.9c0,0.3,0.3,0.6,0.6,0.6h5.7V90.3c0-1,0.8-1.9,1.9-1.9c1,0,1.9,0.8,1.9,1.9v25.9h5.7c0.3,0,0.6-0.3,0.6-0.6V90.3
	c0-1,0.8-1.9,1.9-1.9c1,0,1.9,0.8,1.9,1.9v20.8h4.6c2.8,0,5.4,1.1,7.5,3.1c1.3,1.3,3,2,4.7,2h34.3c1.7,0,3.2-1.4,3.2-3.2v-2.5
	c0-1.7-1.4-3.2-3.2-3.2H57.5c-1,0-1.9-0.8-1.9-1.9c0-1,0.8-1.9,1.9-1.9h17.7c1.7,0,3.2-1.4,3.2-3.2v-2.5c0-1.7-1.4-3.2-3.2-3.2H57.5
	c-1,0-1.9-0.8-1.9-1.9c0-1,0.8-1.9,1.9-1.9h17.7c1.7,0,3.2-1.4,3.2-3.2v-2.5c0-1.7-1.4-3.2-3.2-3.2H57.5c-1,0-1.9-0.8-1.9-1.9
	c0-1,0.8-1.9,1.9-1.9h17.7c1.7,0,3.2-1.4,3.2-3.2v-2.5c0-1.7-1.4-3.2-3.2-3.2H57.5c-1,0-1.9-0.8-1.9-1.9c0-1,0.8-1.9,1.9-1.9h17.7
	C79,65.7,82.1,68.8,82.1,72.6z M59.2,52.7c-0.8-5.3,2.8-10.3,8.1-11.1l0,0c5.3-0.8,10.3,2.8,11.1,8.1c0.8,5.3-2.8,10.3-8.1,11.1
	c-0.5,0.1-1,0.1-1.5,0.1C64.1,60.9,60,57.5,59.2,52.7z M63,52.1c0.5,3.2,3.5,5.5,6.8,4.9c3.2-0.5,5.5-3.5,5-6.8
	c-0.5-3.2-3.5-5.5-6.8-4.9l0,0C64.7,45.8,62.5,48.8,63,52.1z M84.6,33.4c0.6-0.8,0.5-2-0.4-2.7c-5.6-4.2-12.5-5.9-19.4-4.9
	c-7.9,1.2-14.7,6-18.5,13c-0.5,0.9-0.2,2.1,0.8,2.6c0.3,0.2,0.6,0.2,0.9,0.2c0.7,0,1.3-0.4,1.7-1c3.3-6,9-10.1,15.8-11.1
	c5.9-0.9,11.8,0.6,16.5,4.1C82.8,34.4,84,34.2,84.6,33.4z M114.9,41.9l-10-2c-0.7-2.1-1.5-4.2-2.5-6.1l5.7-8.5
	c1.7-2.5,1.3-5.9-0.8-8l-4.3-4.3c-2.1-2.1-5.5-2.5-8-0.8l-8.5,5.7c-2-1-4-1.9-6.1-2.5l-2-10c-0.6-3-3.2-5.1-6.2-5.1h-6.1
	c-3,0-5.7,2.2-6.2,5.1l-2,10c-2.1,0.7-4.2,1.5-6.1,2.5L42.9,12c-2.5-1.7-5.9-1.3-8,0.8l-4.3,4.3c-2.1,2.1-2.5,5.5-0.8,8l5.7,8.5
	c-1,2-1.9,4-2.5,6.1l-10,2c-3,0.6-5.1,3.2-5.1,6.2v6.1c0,3,2.2,5.7,5.1,6.2l6.5,1.3c1,0.2,2-0.5,2.2-1.5c0.2-1-0.5-2-1.5-2.2
	l-6.5-1.3c-1.2-0.2-2.1-1.3-2.1-2.5v-6.1c0-1.2,0.9-2.3,2.1-2.5l11.2-2.2c0.7-0.1,1.3-0.7,1.5-1.3c0.7-2.6,1.8-5.1,3.1-7.5
	c0.4-0.6,0.3-1.4-0.1-2l-6.3-9.5c-0.7-1-0.5-2.4,0.3-3.3l4.3-4.3c0.9-0.9,2.2-1,3.3-0.3l9.5,6.3c0.6,0.4,1.4,0.4,2,0.1
	c2.4-1.3,4.9-2.4,7.5-3.1c0.7-0.2,1.2-0.8,1.3-1.5l2.2-11.2c0.2-1.2,1.3-2.1,2.5-2.1h6.1c1.2,0,2.3,0.9,2.5,2.1L76.7,17
	c0.1,0.7,0.7,1.3,1.3,1.5c2.6,0.7,5.1,1.8,7.5,3.1c0.6,0.3,1.4,0.3,2-0.1l9.5-6.3c1-0.7,2.4-0.5,3.3,0.3l4.3,4.3
	c0.9,0.9,1,2.2,0.3,3.3l-6.3,9.5c-0.4,0.6-0.4,1.4-0.1,2c1.3,2.4,2.4,4.9,3.1,7.5c0.2,0.7,0.8,1.2,1.5,1.3l11.2,2.2
	c1.2,0.2,2.1,1.3,2.1,2.5v6.1c0,1.2-0.9,2.3-2.1,2.5L103,59c-0.7,0.1-1.3,0.7-1.5,1.3c-0.7,2.6-1.8,5.1-3.1,7.5
	c-0.4,0.6-0.3,1.4,0.1,2l6.3,9.5c0.7,1,0.5,2.4-0.3,3.3l-4.3,4.3c-0.9,0.9-2.2,1-3.3,0.3l-9.5-6.3c-0.9-0.6-2-0.3-2.6,0.5
	c-0.6,0.9-0.3,2,0.5,2.6l9.5,6.3c1.1,0.7,2.3,1.1,3.5,1.1c1.6,0,3.3-0.6,4.5-1.9l4.3-4.3c2.1-2.1,2.5-5.5,0.8-8l-5.7-8.5
	c1-2,1.9-4,2.5-6.1l10-2c3-0.6,5.1-3.2,5.1-6.2v-6.1C120,45.1,117.8,42.5,114.9,41.9z M86,69.5c0.5,0,1-0.2,1.4-0.6
	c5.6-5.8,8.1-13.7,6.8-21.7c-0.6-4-2.2-7.8-4.5-11.1c-0.6-0.8-1.8-1-2.6-0.4c-0.8,0.6-1,1.8-0.4,2.6c2,2.8,3.3,6,3.9,9.4
	c1.1,6.8-1.1,13.5-5.8,18.5c-0.7,0.8-0.7,2,0.1,2.7C85,69.3,85.5,69.5,86,69.5z"/>
</svg>
